…
Σε αυτή την άσκηση, θα οπτικοποιήσετε τα δεδομένα του COVID-19 από τις
πρώτες εβδομάδες της επιδημίας για να δείτε σε ποιο σημείο ο ιός αυτός
έγινε παγκόσμια πανδημία.

<em>Λάβετε υπόψη ότι οι πληροφορίες και τα δεδομένα σχετικά με το
COVID-19 ενημερώνονται συχνά. Τα δεδομένα που χρησιμοποιήθηκαν σε αυτό
το έργο τραβήχτηκαν στις 3 Μαρτίου 2020 και δεν πρέπει να θεωρηθούν ως
τα πλέον ενημερωμένα διαθέσιμα στοιχεία.</em>

    ## # A tibble: 56 x 2
    ##    date       cum_cases
    ##    <date>         <dbl>
    ##  1 2020-01-22       555
    ##  2 2020-01-23       653
    ##  3 2020-01-24       941
    ##  4 2020-01-25      1434
    ##  5 2020-01-26      2118
    ##  6 2020-01-27      2927
    ##  7 2020-01-28      5578
    ##  8 2020-01-29      6166
    ##  9 2020-01-30      8234
    ## 10 2020-01-31      9927
    ## # ... with 46 more rows
…
